%YAML 1.1
%TAG !u! tag:unity3d.com,2011:
--- !u!1045 &1
EditorBuildSettings:
  m_ObjectHideFlags: 0
  serializedVersion: 2
  m_Scenes:
  - enabled: 0
    path: 
    guid: 00000000000000000000000000000000
  - enabled: 1
    path: Assets/Scenes/Main Menu.unity
    guid: ae7f000d0ff9a374f978835cbfb29def
  - enabled: 1
    path: Assets/Scenes/1.unity
    guid: b5760469493066440bfe45b27d797f69
  - enabled: 1
    path: Assets/Scenes/2.unity
    guid: 4934ac8c15106f246b949aeb06cd51fc
  - enabled: 1
    path: Assets/Scenes/3.unity
    guid: d337974ab1d9ea2449439345caf482eb
  - enabled: 1
    path: Assets/Scenes/Restart Level.unity
    guid: f902b06b5acf79f4ea81a7844aee8bbc
  - enabled: 1
    path: Assets/Scenes/Win.unity
    guid: d215e46dc4068dd40830dab8b8f1a419
  m_configObjects: {}
